{
  "group": "craftable_nametag",
  "type": "minecraft:crafting_shaped",
  "pattern": [
    "  2",
    " 4 ",
    "6  "
  ],
  "key": {
    "2": {
      "item": "minecraft:string"
    },
    "4": {
      "item": "minecraft:gold_ingot"
    },
    "6": {
      "item": "minecraft:paper"
    }
  },
  "result": {
    "item": "minecraft:name_tag",
    "count": 1
  }
}